{
    "count": 3,
    "totalCount": 6,
    "page": 1,
    "totalPages": 2,
    "lastItemIndex": 3,
    "results": [
        {
            "_id": "KMTJ0Ya3e9",
            "author": "Thomas Edison",
            "content": "To invent, you need a good imagination and a pile of junk.",
            "tags": [
                "Imagination",
                "Creativity",
                "Science",
                "Technology"
            ],
            "authorSlug": "thomas-edison",
            "length": 58,
            "dateAdded": "2023-04-14",
            "dateModified": "2023-04-14"
        },
        {
            "_id": "sXhSm0WMZqL",
            "author": "Alan Watts",
            "content": "Technology is destructive only in the hands of people who do not realize that they are one and the same process as the universe.",
            "tags": [
                "Technology"
            ],
            "authorSlug": "alan-watts",
            "length": 128,
            "dateAdded": "2022-03-12",
            "dateModified": "2023-04-14"
        },
        {
            "_id": "ZyIkYFat1B",
            "content": "Computers are like bikinis. They save people a lot of guesswork.",
            "author": "Sam Ewing",
            "tags": [
                "Technology"
            ],
            "authorSlug": "sam-ewing",
            "length": 64,
            "dateAdded": "2021-04-08",
            "dateModified": "2023-04-14"
        }
    ]
}
